{
  "sections": {
    "Primary": [
      {
        "name": "$color-primary",
        "hex": "#152f52"
      },
      {
        "name": "$color-secondary",
        "hex": "#cd383e"
      },
      {
        "name": "$color-tertiary",
        "hex": "#0d5c9f"
      }
    ],
    "Black &amp; White": [
      {
        "name": "$color-black",
        "hex": "#1B2B34"
      },
      {
        "name": "$color-white",
        "hex": "#FFFFFF"
      }
    ],
    "Grays": [
      {
        "name": "$color-gray-dk",
        "hex": "#343D46"
      },
      {
        "name": "$color-gray-mid",
        "hex": "#4F5B66"
      },
      {
        "name": "$color-gray-lt",
        "hex": "#65737E"
      },
      {
        "name": "$color-gray-xlt",
        "hex": "#A7ADBA"
      }
    ]
  }
}
